startActivity(, intent=[ action:android.intent.action.MAIN, cat: [android.intent.category.LAUNCHER] , component:ComponentInfo{za.vdm.main/MainActivity}, extra: no extras ]]) (1,)
$button1.onClick() (2,)
$button3.onClick() (3,)
sendBroadcast(, intent=[ action:android.net.conn.CONNECTIVITY_CHANGE , component:ComponentInfo{za.vdm.main/za.vdm.receivers.system.ConnectionChangeReceiver}, extra: no extras ]]) (4,) za.vdm.main.MainActivity null

startActivity(, intent=[ action:android.intent.action.MAIN, cat: [android.intent.category.LAUNCHER] , component:ComponentInfo{za.vdm.main/MainActivity}, extra: no extras ]]) (1,)
$button1.onClick() (2,)
$button3.onClick() (3,)
$button1.onClick() (4,) za.vdm.main.MainActivity null

startActivity(, intent=[ action:android.intent.action.MAIN, cat: [android.intent.category.LAUNCHER] , component:ComponentInfo{za.vdm.main/MainActivity}, extra: no extras ]]) (1,)
$button1.onClick() (2,)
$button3.onClick() (3,)
$button2.onClick() (4,) za.vdm.main.MainActivity null

startActivity(, intent=[ action:android.intent.action.MAIN, cat: [android.intent.category.LAUNCHER] , component:ComponentInfo{za.vdm.main/MainActivity}, extra: no extras ]]) (1,)
$button1.onClick() (2,)
$button3.onClick() (3,)
$button3.onClick() (4,) za.vdm.main.MainActivity null

startActivity(, intent=[ action:android.intent.action.MAIN, cat: [android.intent.category.LAUNCHER] , component:ComponentInfo{za.vdm.main/MainActivity}, extra: no extras ]]) (1,)
$button1.onClick() (2,)
$button3.onClick() (3,)
$button4.onClick() (4,) za.vdm.main.MainActivity null

