JavaPathfinder core system v8.0 (rev ${version}) - (C) 2005-2014 United States Government. All rights reserved.


====================================================== system under test
com.mamlambo.supersimpledialogs.SuperSimpleDialogsActivity.main()

====================================================== search started: 2017/01/05 12:34 PM

====================================================== results
no errors detected

====================================================== statistics
elapsed time:       00:00:02
states:             new=9,visited=13,backtracked=22,end=0
search:             maxDepth=6,constraints=0
choice generators:  thread=3 (signal=0,lock=1,sharedRef=0,threadApi=0,reschedule=0), data=7
heap:               new=10412,released=5825,maxLive=4423,gcCycles=22
instructions:       183529
max memory:         125611MB
loaded code:        classes=285,methods=6345

====================================================== search finished: 2017/01/05 12:34 PM
