JavaPathfinder core system v8.0 (rev ${version}) - (C) 2005-2014 United States Government. All rights reserved.


====================================================== system under test
com.example.menutest.MainActivity.main()

====================================================== search started: 2017/01/05 12:14 PM

====================================================== results
no errors detected

====================================================== statistics
elapsed time:       00:00:02
states:             new=5,visited=4,backtracked=9,end=0
search:             maxDepth=4,constraints=0
choice generators:  thread=3 (signal=0,lock=1,sharedRef=0,threadApi=0,reschedule=0), data=3
heap:               new=8799,released=3525,maxLive=5270,gcCycles=9
instructions:       157699
max memory:         125611MB
loaded code:        classes=343,methods=7342

====================================================== search finished: 2017/01/05 12:14 PM
