****************** EventTree *****************
Number of Events: 47
Number of Branches: 35
Event histogram: [0, 3, 14, 3, 15, 0, 0, 0, 0, 0, 0, 0, 0, 0, 0, 0, 0, 0, 0, 0, 0]
**********************************************
